Individual	Genotype	Height
1	A	42.4899509371
1	B	58.2260773677
2	A	51.3814756568
2	B	56.3142461101
3	A	36.7420022468
3	B	87.3264996022
4	A	42.4486865617
4	B	17.0152451759
5	A	60.5467446211
5	B	71.6913106789
6	A	49.6310310993
6	B	80.6480141665
7	A	70.6953017178
7	B	52.0016586842
8	A	56.9631111952
8	B	68.0164161974
9	A	60.6315903647
9	B	58.5164893393
10	A	43.1455305204
10	B	78.7122277611
11	A	52.7321868443
11	B	74.0955813159
12	A	59.5791596135
12	B	85.3685416337
13	A	43.7367518188
13	B	73.1298617076
14	A	59.8703355905
14	B	70.5390305819
15	A	49.8113504984
15	B	53.1526251885
16	A	32.7331249363
16	B	74.4076657404
17	A	59.2977103695
17	B	51.1988958976
18	A	44.8129640143
18	B	57.848162049
19	A	54.3120643357
19	B	57.0370541969
20	A	41.6831411094
20	B	48.5669846223
21	A	29.8212792375
21	B	64.7691039417
22	A	48.0443212748
22	B	98.3309403971
23	A	59.246538547
23	B	83.1698673351
24	A	37.0283774011
24	B	57.8540405242
25	A	58.7669875313
25	B	58.7828233514
26	A	53.7901367746
26	B	53.4463602952
27	A	70.372394488
27	B	47.618502103
28	A	45.4236800402
28	B	66.4534551328
29	A	39.8217067051
29	B	58.2882843675
30	A	25.7743799039
30	B	82.9611440676
31	A	50.696077654
31	B	68.032461659
32	A	64.1317118622
32	B	70.7132929559
33	A	22.6309048288
33	B	89.1966980099
34	A	47.067781227
34	B	79.968639807
35	A	41.9881486974
35	B	67.5935936847
36	A	36.4157739478
36	B	66.7688878282
37	A	51.696000464
37	B	40.1924715532
38	A	46.859603786
38	B	63.7780850822
39	A	43.7353371681
39	B	49.6820797577
40	A	54.7290570338
40	B	81.1784120457
41	A	54.0559718429
41	B	72.1484673863
42	A	40.7833199776
42	B	59.1913442886
43	A	57.8649077239
43	B	91.1897071643
44	A	72.8839954325
44	B	75.9470004116
45	A	53.1456864794
45	B	31.6595550142
46	A	32.7008338356
46	B	42.3929661668
47	A	49.997857866
47	B	56.850462422
48	A	44.1182239295
48	B	69.5726271975
49	A	51.6478939393
49	B	69.473468999
50	A	43.9009926844
50	B	65.7023636298
51	A	53.6723856866
51	B	48.3773244799
52	A	41.75232885
52	B	76.8553474499
53	A	45.3227119694
53	B	73.0172326992
54	A	50.758737813
54	B	68.8482836422
55	A	60.277424386
55	B	77.1144934295
56	A	29.19766191
56	B	79.4482526146
57	A	43.8005511953
57	B	50.8673090446
58	A	60.1190713603
58	B	71.5464009405
59	A	53.1928912739
59	B	71.4589749943
60	A	53.6069389463
60	B	56.7908545273
61	A	39.9380632604
61	B	75.8693186235
62	A	57.9527382287
62	B	62.455007319
63	A	56.7045512692
63	B	67.5800290238
64	A	44.376725783
64	B	62.6297658128
65	A	50.5990190125
65	B	84.9348994067
66	A	35.0539745464
66	B	53.8330281682
67	A	47.888213203
67	B	78.283192377
68	A	33.6513762909
68	B	100.615214799
69	A	47.3997450468
69	B	65.3436107203
70	A	50.5551643681
70	B	73.2709916054
71	A	50.8105952424
71	B	67.8386793321
72	A	61.1646294919
72	B	50.0125555394
73	A	56.1357574816
73	B	65.620801572
74	A	54.2891034206
74	B	51.9366790289
75	A	51.9357653459
75	B	65.9046988147
76	A	34.2282516152
76	B	47.2017011445
77	A	61.7354387838
77	B	68.0606900793
78	A	60.0614606335
78	B	54.742029031
79	A	52.0796965741
79	B	58.2273453358
80	A	31.7840059843
80	B	49.578074489
81	A	36.4992459519
81	B	69.6480899535
82	A	57.436012519
82	B	58.745809247
83	A	62.0298122831
83	B	52.2650547901
84	A	27.0730005677
84	B	58.1839727351
85	A	46.7967651005
85	B	73.2380750228
86	A	54.7825110427
86	B	59.395299372
87	A	44.1817581164
87	B	46.2936220325
88	A	47.7541220447
88	B	53.0694591594
89	A	57.9479015741
89	B	77.5315878118
90	A	75.2688100767
90	B	62.1104432915
91	A	-4.0
91	B	60.4968391556
92	A	51.7732318923
92	B	57.7496860815
93	A	44.1531808117
93	B	61.731992817
94	A	24.8169089447
94	B	49.4459286979
95	A	45.8194355357
95	B	73.4053915632
96	A	47.5728945819
96	B	49.1457935808
97	A	53.6864723797
97	B	58.7148483218
98	A	39.9629488633
98	B	75.0634135496
99	A	59.9073209223
99	B	57.2051099922
100	A	50.2071104377
100	B	83.2870476377
101	A	42.8970485927
101	B	83.5866018421
102	A	57.4876561341
102	B	60.9775770519
103	A	63.4118766191
103	B	66.3482197177
104	A	55.0153878589
104	B	57.2477870572
105	A	74.3491763009
105	B	42.356045909
106	A	33.557937957
106	B	96.7908465665
107	A	42.5957256514
107	B	67.639308042
108	A	55.6266777606
108	B	44.1250097612
109	A	44.2127081901
109	B	56.2497175503
110	A	58.7270443276
110	B	72.0946327545
111	A	37.8626990232
111	B	50.1958240529
112	A	55.6429221928
112	B	32.1845604755
113	A	42.1657255897
113	B	53.519825778
114	A	49.809952905
114	B	69.6166712836
115	A	44.926065004
115	B	62.7647247239
116	A	60.7968070183
116	B	68.0851716054
117	A	57.0563175787
117	B	55.7051028424
118	A	33.8610696795
118	B	58.9389907417
119	A	63.6395530893
119	B	44.2016064119
120	A	35.7940954422
120	B	43.4629825778
121	A	47.5546846454
121	B	84.9070334936
122	A	57.3136002113
122	B	76.3988853045
123	A	52.6645025952
123	B	54.5858432541
124	A	55.9569965527
124	B	84.149442046
125	A	52.0000502029
125	B	58.7309233696
126	A	35.3297663454
126	B	51.5505606158
127	A	55.6625881244
127	B	42.6932797877
128	A	37.1086268398
128	B	66.880377133
129	A	54.6142999722
129	B	61.2982853856
130	A	49.7012203861
130	B	46.4459302141
131	A	54.869448345
131	B	66.1718515586
132	A	39.3130836113
132	B	74.7627958225
133	A	47.7071064076
133	B	72.43433819
134	A	55.9690702575
134	B	48.9739123831
135	A	44.4296690441
135	B	55.333689107
136	A	48.578672747
136	B	61.9910476009
137	A	59.1837935806
137	B	63.417959328
138	A	42.5329953264
138	B	36.8723672646
139	A	59.3134199031
139	B	69.3740212074
140	A	40.1045216354
140	B	74.8161534557
141	A	45.4899330099
141	B	64.7382439163
142	A	53.6094299363
142	B	67.6271242271
143	A	42.2376456832
143	B	70.6521644879
144	A	52.0316368414
144	B	79.4401357003
145	A	60.0508269888
145	B	67.8059673473
146	A	57.5326912271
146	B	77.8958037775
147	A	35.5950066757
147	B	57.6411615249
148	A	66.3017443194
148	B	49.8480339556
149	A	47.9443552413
149	B	65.3117881814
150	A	60.2570793274
150	B	65.6713588962
151	A	54.8357366567
151	B	51.928766944
152	A	44.1199676746
152	B	62.984223768
153	A	44.7017253388
153	B	72.3706818643
154	A	53.2963415767
154	B	69.0527900823
155	A	42.2669681926
155	B	41.0118674913
156	A	49.0998741293
156	B	76.5348049874
157	A	53.5672175903
157	B	62.1240891088
158	A	28.9961425442
158	B	74.7181309012
159	A	56.6488182933
159	B	47.0071783247
160	A	58.6846985233
160	B	37.4858748458
161	A	56.9349551615
161	B	34.4185403481
162	A	41.9660512479
162	B	59.2178095787
163	A	51.9563370609
163	B	70.1760210197
164	A	55.0232766172
164	B	54.0817850094
165	A	46.7375488734
165	B	65.6883960951
166	A	43.2429262339
166	B	77.4476181108
167	A	49.9407613234
167	B	70.255967682
168	A	58.7235187257
168	B	72.4691653331
169	A	43.8093642292
169	B	70.0626781233
170	A	41.4068197428
170	B	79.6969786079
171	A	54.6778539697
171	B	94.4684107128
172	A	61.5201490635
172	B	56.7519200756
173	A	39.120866718
173	B	52.932475214
174	A	43.6682361329
174	B	75.9425415043
175	A	46.5324845983
175	B	66.9524095416
176	A	39.5933245423
176	B	69.8945184364
177	A	49.58680036
177	B	44.3320156516
178	A	35.8920397333
178	B	49.1568873387
179	A	42.069011332
179	B	70.5502014485
180	A	69.1119583001
180	B	91.6068047394
181	A	47.7074207667
181	B	54.8916524488
182	A	49.8473230176
182	B	68.8828766006
183	A	61.174916936
183	B	72.7703460562
184	A	57.4709369498
184	B	66.7015083165
185	A	56.6187608945
185	B	67.5161955043
186	A	69.6566009469
186	B	55.0697211264
187	A	66.9774988636
187	B	60.037560383
188	A	53.6019858226
188	B	77.5843381397
189	A	40.9373934894
189	B	57.5252214706
190	A	46.0809774727
190	B	62.256820912
191	A	39.943045017
191	B	48.1610550116
192	A	56.2271233559
192	B	65.8143160971
193	A	64.9674061309
193	B	74.6366281615
194	A	54.8285384563
194	B	72.6842927357
195	A	41.358157492
195	B	55.9708445327
196	A	30.2981876085
196	B	46.1167948132
197	A	45.0828790804
197	B	64.8714688607
198	A	50.0178859518
198	B	37.8889592075
199	A	61.4682552932
199	B	49.3723120007
200	A	49.2839336001
200	B	72.7735109579
201	A	54.2480004847
201	B	71.7972261807
202	A	57.7506880951
202	B	90.6853421743
203	A	58.693255386
203	B	69.2016504158
204	A	57.0096360445
204	B	61.0191477221
205	A	56.7515029207
205	B	74.6033102381
206	A	59.3154590406
206	B	40.8863226113
207	A	46.1762915561
207	B	73.9617150585
208	A	51.7900478682
208	B	47.882760214
209	A	26.295281989
209	B	73.8780541978
210	A	32.685891949
210	B	76.9219699509
211	A	54.5441028618
211	B	69.8426975954
212	A	52.1879677485
212	B	71.5899949107
213	A	41.8985592631
213	B	88.466333479
214	A	46.3017451031
214	B	98.4702234356
215	A	48.3770640471
215	B	92.6648226164
216	A	39.4321914897
216	B	88.2917031477
217	A	43.5646819197
217	B	66.1134789395
218	A	50.1379397863
218	B	50.1111296879
219	A	60.6052781083
219	B	62.405071143
220	A	50.8220566715
220	B	82.7318110975
221	A	53.1128933792
221	B	49.0695840715
222	A	50.5352288942
222	B	46.0405432318
223	A	64.1758154869
223	B	55.6773573804
224	A	63.985495096
224	B	29.3397190131
225	A	37.9952068425
225	B	56.527791063
226	A	49.1373380484
226	B	52.6783749233
227	A	62.7153270347
227	B	81.8460249406
228	A	57.3490732086
228	B	81.9766449386
229	A	70.7518942264
229	B	62.6061844191
230	A	44.6168291913
230	B	53.8954143631
231	A	39.8506902442
231	B	48.1204586942
232	A	50.7179036042
232	B	80.8813907558
233	A	57.5034063019
233	B	55.6610772436
234	A	53.7372066087
234	B	77.871354802
235	A	23.1675857508
235	B	74.2246689745
236	A	46.1392780581
236	B	70.2201972359
237	A	60.013773368
237	B	39.5559241306
238	A	48.0245803886
238	B	79.9535426989
239	A	71.0268367006
239	B	70.3037823288
240	A	38.4064415004
240	B	40.3209388411
241	A	57.1441421487
241	B	52.7998707209
242	A	55.1027819452
242	B	63.9652544886
243	A	49.7780024033
243	B	89.9714701673
244	A	45.0544805669
244	B	86.2264878803
245	A	51.6139977163
245	B	64.4871956511
246	A	37.0679465199
246	B	77.0146737865
247	A	54.9566767003
247	B	66.9195505536
248	A	57.7737539712
248	B	50.3767084723
249	A	57.4183895184
249	B	79.761823377
250	A	48.0696429164
250	B	66.7072176848
251	A	55.1246127221
251	B	56.0945335404
252	A	69.4331179538
252	B	52.2130730412
253	A	39.8546793568
253	B	83.8338573377
254	A	52.9618500164
254	B	74.0505514891
255	A	36.8713356282
255	B	46.4328969838
256	A	39.5614538452
256	B	46.4529485152
257	A	57.7876129067
257	B	55.0853083224
258	A	55.2501428208
258	B	61.1986327694
259	A	35.1991204502
259	B	73.5184778062
260	A	48.0925513424
260	B	45.9726729661
261	A	42.16405885
261	B	58.0782408793
262	A	52.0481712985
262	B	40.5112116888
263	A	32.2164330238
263	B	50.977030501
264	A	56.3917936881
264	B	61.2627377427
265	A	51.5562455833
265	B	58.2625125925
266	A	45.0731381715
266	B	78.5246237913
267	A	54.5024135839
267	B	86.9025968324
268	A	36.3647890251
268	B	66.9826133215
269	A	52.3571205176
269	B	49.9379371335
270	A	63.9362204734
270	B	40.7608856717
271	A	71.6188497462
271	B	76.6084679457
272	A	51.8205051181
272	B	67.0034945845
273	A	60.8215331866
273	B	78.0990493699
274	A	53.3061663436
274	B	68.7689827727
275	A	62.6035352586
275	B	49.4744305205
276	A	60.3681776049
276	B	57.4743020485
277	A	72.1665119922
277	B	57.8674519444
278	A	41.0548128021
278	B	58.2631798488
279	A	30.8786978669
279	B	71.2705744983
280	A	46.2136116099
280	B	69.3781113165
281	A	58.6828253011
281	B	85.3717438605
282	A	53.7583955289
282	B	67.9620438908
283	A	29.9299977704
283	B	92.0900546338
284	A	62.5738378968
284	B	72.5732072057
285	A	30.1188266624
285	B	76.815888108
286	A	34.3236914332
286	B	71.5622569356
287	A	60.2366830802
287	B	57.0520127999
288	A	43.8439990086
288	B	57.8144943295
289	A	48.568470329
289	B	44.9621519019
290	A	52.7243682227
290	B	67.8184678112
291	A	38.5380581894
291	B	78.9348805997
292	A	50.0117095332
292	B	71.9189403793
293	A	54.6090428885
293	B	81.5932587652
294	A	49.6389636952
294	B	54.7377847843
295	A	39.8173355405
295	B	68.3885527561
296	A	51.0109351001
296	B	65.4199265489
297	A	68.1761884078
297	B	49.6295078883
298	A	65.1578230599
298	B	49.4935113975
299	A	64.9530948305
299	B	95.1943225495
300	A	54.0051343821
300	B	43.8302604526
301	A	48.309007676
301	B	90.2629287043
302	A	39.5400265392
302	B	53.2165208991
303	A	63.0711213803
303	B	53.5970392772
304	A	55.2183997849
304	B	61.871837056
305	A	48.7635116146
305	B	51.2041026449
306	A	64.8248270963
306	B	64.0096168805
307	A	85.3681396976
307	B	53.2789129562
308	A	51.5389217436
308	B	62.6400784123
309	A	35.3683716172
309	B	66.5941671295
310	A	60.7050092688
310	B	63.012512105
311	A	59.3096062694
311	B	60.7233872995
312	A	78.5358485744
312	B	60.5248216642
313	A	59.1398053472
313	B	67.7389076317
314	A	65.5132506233
314	B	55.5597001818
315	A	49.2839364327
315	B	52.8285463885
316	A	36.1151944644
316	B	64.5063653114
317	A	50.9035162755
317	B	69.5580838245
318	A	27.1193885544
318	B	94.8619833391
319	A	42.4587831073
319	B	83.1651354239
320	A	46.9151845889
320	B	83.2475707328
321	A	67.5824634962
321	B	89.8294430951
322	A	58.3763443311
322	B	67.3211280095
323	A	46.322179335
323	B	68.0910905149
324	A	54.574073032
324	B	54.3473238107
325	A	78.0654526251
325	B	70.4803694076
326	A	63.5760857617
326	B	38.5809064197
327	A	52.6910695455
327	B	71.3532167953
328	A	51.6016313126
328	B	57.9201397748
329	A	48.3359786096
329	B	70.2805904527
330	A	75.2338541814
330	B	55.247369677
331	A	30.6769417005
331	B	53.9152767876
332	A	38.7673788698
332	B	53.3261472126
333	A	65.018710045
333	B	59.7439814121
334	A	45.2127352978
334	B	48.7388884161
335	A	38.1877568652
335	B	49.617495288
336	A	36.6565296968
336	B	72.3879202005
337	A	48.5100090609
337	B	40.6496771566
338	A	51.3174161868
338	B	67.0436314886
339	A	46.2639056929
339	B	47.3771378868
340	A	52.4097529469
340	B	90.6676015909
341	A	45.132614567
341	B	85.0470525537
342	A	59.7989746082
342	B	61.620751143
343	A	47.4842910329
343	B	61.4711368351
344	A	57.3807611605
344	B	59.8474124396
345	A	63.2339725487
345	B	66.1124245925
346	A	48.3405924736
346	B	59.4627376906
347	A	73.6275908879
347	B	59.4083648306
348	A	56.0311631126
348	B	70.4859143051
349	A	62.8280635639
349	B	46.4600899124
350	A	53.0518341926
350	B	62.5454143885
351	A	56.401881085
351	B	64.0193514519
352	A	60.5664649255
352	B	103.273562298
353	A	38.9246836025
353	B	59.3097823035
354	A	47.7294016047
354	B	45.1597083191
355	A	40.6613212152
355	B	52.4468322969
356	A	24.6548161789
356	B	83.557159693
357	A	60.9220886917
357	B	57.530151671
358	A	54.0769379174
358	B	58.4545868977
359	A	48.7547712776
359	B	74.0607032553
360	A	55.9481025863
360	B	63.4183233551
361	A	60.868052427
361	B	56.5584250455
362	A	56.5507896553
362	B	81.509618112
363	A	45.981092978
363	B	66.1579011534
364	A	52.2536657514
364	B	66.9750938029
365	A	53.0496308336
365	B	63.5526141819
366	A	59.3440450918
366	B	61.6782794767
367	A	62.4449608393
367	B	75.1759855732
368	A	62.1795003396
368	B	58.2654699184
369	A	62.0351762705
369	B	83.9768651672
370	A	43.6337426243
370	B	50.1850768897
371	A	52.2115713702
371	B	80.8847155084
372	A	50.9112032573
372	B	67.7057789368
373	A	76.4051160856
373	B	72.2428572882
374	A	47.4230630056
374	B	67.6796105385
375	A	38.9190489995
375	B	70.3393000435
376	A	44.2833195793
376	B	57.111628352
377	A	48.7209205762
377	B	73.6249518635
378	A	38.8494396097
378	B	82.9614881911
379	A	63.3988870375
379	B	62.3624913327
380	A	55.4142011105
380	B	71.3815190628
381	A	63.8923112752
381	B	83.4757359326
382	A	74.2307006254
382	B	74.5542640153
383	A	57.3223035953
383	B	70.1361186115
384	A	61.9770636942
384	B	45.7081666194
385	A	34.9261333513
385	B	82.3897212733
386	A	58.2017283867
386	B	64.2430816612
387	A	46.6913329998
387	B	52.0882079632
388	A	44.2693223636
388	B	64.8155319121
389	A	29.7618020867
389	B	89.1204292698
390	A	40.3983220254
390	B	71.869738712
391	A	53.5574861559
391	B	93.5835616872
392	A	43.22880973
392	B	71.0774559655
393	A	57.3144983893
393	B	82.9836216419
394	A	48.6157145952
394	B	73.8550229705
395	A	79.6658827208
395	B	60.2992834661
396	A	47.1643826868
396	B	46.6026486032
397	A	47.7691749013
397	B	66.59242149
398	A	48.3208242724
398	B	60.5189885207
399	A	57.9390897897
399	B	54.1790451903
400	A	40.5489636187
400	B	50.7208182929
401	A	58.2523868124
401	B	68.075241216
402	A	54.9155123142
402	B	71.5255771533
403	A	60.3242618491
403	B	83.7080876804
404	A	41.648642107
404	B	87.3822429962
405	A	35.4579428708
405	B	39.4375676512
406	A	40.7778417235
406	B	61.2605973914
407	A	54.5335519463
407	B	69.0290711658
408	A	53.5489593809
408	B	58.6556886577
409	A	56.0682548654
409	B	48.0188271092
410	A	52.3405338122
410	B	78.0365821889
411	A	51.3924582888
411	B	82.6452726116
412	A	61.3883840787
412	B	87.7746709162
413	A	41.6836644792
413	B	75.7938086762
414	A	45.7566498666
414	B	61.7320020503
415	A	52.2277782434
415	B	73.0462964871
416	A	50.8004085868
416	B	55.8740718805
417	A	57.9205833592
417	B	59.3993833577
418	A	53.1432285885
418	B	60.9080346124
419	A	50.7746455578
419	B	51.4388158992
420	A	43.8001831072
420	B	62.9754224886
421	A	23.0515702169
421	B	96.400439237
422	A	38.2570414299
422	B	86.2890516647
423	A	57.2846976396
423	B	50.1690496573
424	A	57.0267941646
424	B	49.6849946174
425	A	48.2991742147
425	B	75.0375432026
426	A	51.4192780008
426	B	85.1424754938
427	A	43.7262828921
427	B	52.5944837938
428	A	37.2993541609
428	B	66.3397043282
429	A	37.416619599
429	B	79.4379038843
430	A	37.9521909166
430	B	60.6062619526
431	A	51.0429387107
431	B	82.216501871
432	A	58.0143634191
432	B	65.5119232103
433	A	54.2966182397
433	B	57.4375232403
434	A	65.5381624752
434	B	78.4373865174
435	A	48.0090778233
435	B	41.5948509342
436	A	60.0369986604
436	B	59.1760983974
437	A	40.6683267066
437	B	79.3104866377
438	A	50.5609592173
438	B	64.459142111
439	A	45.3385416062
439	B	62.2366015793
440	A	58.6944783294
440	B	65.8379568474
441	A	34.3700398352
441	B	53.1787424247
442	A	71.2722547394
442	B	57.8834166073
443	A	53.34161562
443	B	104.137067528
444	A	45.8140422917
444	B	59.5159169854
445	A	38.3346020497
445	B	51.1622074079
446	A	48.146863334
446	B	46.8278010757
447	A	27.0945138834
447	B	68.9916379364
448	A	52.1230211828
448	B	60.4667591146
449	A	33.7449504432
449	B	73.6080153795
450	A	61.8811228891
450	B	69.749710954
451	A	63.1936949651
451	B	82.8733581699
452	A	54.5794541605
452	B	62.3941650279
453	A	45.065489553
453	B	68.952089614
454	A	62.2880215308
454	B	69.5740458249
455	A	34.6989089634
455	B	68.9619898473
456	A	62.9311530463
456	B	68.582837976
457	A	43.4670500933
457	B	60.518726067
458	A	52.8424181202
458	B	84.3683052094
459	A	54.2111697813
459	B	86.4014961058
460	A	51.521694732
460	B	65.1611743606
461	A	31.5532124651
461	B	74.9157656885
462	A	40.4655178591
462	B	72.5722386863
463	A	46.7321563885
463	B	32.8205135953
464	A	55.7772230269
464	B	64.8394157516
465	A	61.926370928
465	B	58.500416888
466	A	39.8417356318
466	B	57.9045623344
467	A	55.4647671533
467	B	81.4780195797
468	A	53.9775130697
468	B	60.9373608298
469	A	59.1638606902
469	B	83.7960057406
470	A	50.6534088956
470	B	57.3486133475
471	A	65.2647227569
471	B	59.0838438551
472	A	44.2824668321
472	B	63.6191175968
473	A	42.7010605721
473	B	55.4816407425
474	A	30.858781996
474	B	60.2117773522
475	A	53.7747797292
475	B	65.2973178862
476	A	62.6161432174
476	B	47.5502951837
477	A	49.6474359703
477	B	55.2337754336
478	A	42.1171361942
478	B	86.5914262577
479	A	52.9793518125
479	B	63.4987166588
480	A	45.9089673723
480	B	58.0427186799
481	A	45.8736928836
481	B	77.9224363198
482	A	59.0260976184
482	B	47.0332446453
483	A	50.8395245765
483	B	62.4261053481
484	A	47.5609702952
484	B	80.2503520058
485	A	50.8606169797
485	B	55.3835859617
486	A	46.0131530932
486	B	81.0648816475
487	A	43.2368256733
487	B	45.6757687313
488	A	30.9177690877
488	B	83.6122298094
489	A	39.5129507839
489	B	31.9836468284
490	A	52.5704121822
490	B	59.9276151564
491	A	69.4523661394
491	B	61.9788616908
492	A	44.443171202
492	B	59.3790511281
493	A	52.4819092362
493	B	56.5906007733
494	A	36.6908984224
494	B	58.3121258166
495	A	49.5439456581
495	B	87.3131680668
496	A	45.3350846313
496	B	43.2016521014
497	A	48.9277550577
497	B	64.4749568154
498	A	39.2860655461
498	B	64.6652367691
499	A	59.8771846706
499	B	83.2299272574
500	A	41.5425521307
500	B	75.8294789624
501	A	36.6402984418
501	B	64.5926389821
502	A	43.6044101967
502	B	59.069781076
503	A	30.3298211005
503	B	80.0823406431
504	A	57.5635387491
504	B	58.2760609209
505	A	38.2355098138
505	B	42.4179499714
506	A	45.7864971704
506	B	57.6215492602
507	A	49.9372982478
507	B	86.8310281271
508	A	42.1810843502
508	B	79.7489488791
509	A	44.2175667299
509	B	68.6804993078
510	A	65.549807134
510	B	62.8894287369
511	A	55.6274346383
511	B	67.9957337075
512	A	51.2441955163
512	B	52.6416709047
513	A	42.3708454496
513	B	54.4718500346
514	A	48.7215167762
514	B	65.7569643608
515	A	68.1268559801
515	B	47.4815823861
516	A	30.0026343105
516	B	80.20859325
517	A	43.4053574176
517	B	25.8103960527
518	A	50.4212455605
518	B	59.6442752304
519	A	46.6098404003
519	B	58.9901130419
520	A	33.327677304
520	B	56.9604270945
521	A	40.814378268
521	B	79.1443009891
522	A	44.9605232245
522	B	49.7206542908
523	A	44.924332939
523	B	50.6836455182
524	A	30.4947695551
524	B	65.4997702524
525	A	40.8116260866
525	B	89.3364199729
526	A	49.7223780509
526	B	78.6289884583
527	A	62.0994536086
527	B	82.5205969357
528	A	50.7523741115
528	B	83.7402816482
529	A	37.8474722448
529	B	70.4253568629
530	A	68.9635199074
530	B	53.2635592248
531	A	38.9259423763
531	B	64.4577809712
532	A	62.8751976249
532	B	76.777679162
533	A	54.5689320915
533	B	42.0481241593
534	A	65.7040435341
534	B	75.7790674889
535	A	51.3762429436
535	B	82.7276230211
536	A	42.860168309
536	B	67.0231482063
537	A	40.1466786107
537	B	57.0115430031
538	A	85.1446284728
538	B	84.4492458572
539	A	44.6171736938
539	B	65.2558036973
540	A	55.1404015009
540	B	74.9965003891
541	A	67.9776196632
541	B	55.1283948806
542	A	64.6506222824
542	B	69.4183101933
543	A	40.3860248806
543	B	55.2788372414
544	A	54.6593054975
544	B	79.6287881142
545	A	51.2928997737
545	B	71.0283742346
546	A	56.3005352126
546	B	72.8951618971
547	A	62.0331036977
547	B	71.1382419494
548	A	60.8018480151
548	B	99.0677572078
549	A	52.0403794676
549	B	64.1448243489
550	A	46.7006472628
550	B	73.973992287
551	A	49.76538343
551	B	74.0323843503
552	A	36.7316825543
552	B	75.2626171711
553	A	43.5323512922
553	B	65.2555290936
554	A	37.5570371876
554	B	88.2138422897
555	A	64.2248584622
555	B	60.5810100579
556	A	52.7386434753
556	B	54.9276224577
557	A	44.1753605715
557	B	66.2234820968
558	A	55.7336504836
558	B	82.1269975152
559	A	45.995943219
559	B	58.1533629696
560	A	56.8004457564
560	B	53.3336135409
561	A	35.6695492149
561	B	60.572559434
562	A	55.0744630579
562	B	60.8177697696
563	A	40.3814982404
563	B	91.4126066373
564	A	41.9962656664
564	B	54.914213336
565	A	43.6972922956
565	B	40.2449869362
566	A	58.7129594526
566	B	80.4621438562
567	A	49.7640623796
567	B	78.8947258727
568	A	42.1319269427
568	B	65.7594455433
569	A	51.8050072018
569	B	41.6453898186
570	A	40.946683783
570	B	58.2426071524
571	A	38.5249805225
571	B	71.8070822487
572	A	51.0961432717
572	B	48.6310433805
573	A	60.0926873839
573	B	68.5497848997
574	A	51.6888489582
574	B	51.2498247055
575	A	48.2356216413
575	B	63.6454498496
576	A	47.4851325693
576	B	87.4724181794
577	A	26.8371214197
577	B	64.2450439618
578	A	42.4797262664
578	B	74.5658203246
579	A	46.3406128062
579	B	60.3600275761
580	A	53.5990894547
580	B	78.9562557623
581	A	44.2206015077
581	B	77.3718051496
582	A	50.2284476191
582	B	69.2228977909
583	A	71.8363560102
583	B	66.842718042
584	A	41.8206094841
584	B	58.5055405565
585	A	51.1314117186
585	B	54.9670438207
586	A	58.6109440813
586	B	79.4314946526
587	A	41.0348546946
587	B	84.891850362
588	A	61.4161683782
588	B	65.3468363295
589	A	50.7134664152
589	B	64.7783333842
590	A	23.7334648523
590	B	57.3595020682
591	A	65.5376664102
591	B	67.188162834
592	A	43.5447222103
592	B	44.2925575073
593	A	66.7213614637
593	B	52.938356304
594	A	41.0835423524
594	B	62.337585631
595	A	35.7369623649
595	B	82.479608816
596	A	37.1655013063
596	B	83.8814730851
597	A	31.6253003821
597	B	56.4300877648
598	A	44.6696198198
598	B	56.0733174387
599	A	42.5711354825
599	B	39.7229826474
600	A	51.3313389299
600	B	64.7749960876
601	A	62.113831787
601	B	68.9686019802
602	A	57.0028410838
602	B	50.7060196319
603	A	59.8055943868
603	B	66.5723850486
604	A	44.4148262162
604	B	50.1011208524
605	A	54.1839010149
605	B	69.3125791717
606	A	63.7702129931
606	B	64.0932513635
607	A	56.9886189389
607	B	75.8367930517
608	A	53.0273450906
608	B	82.4138026987
609	A	55.6285305662
609	B	62.3478212664
610	A	50.4557311125
610	B	74.9955598474
611	A	55.540768689
611	B	53.0709896743
612	A	59.4447439578
612	B	52.7352920613
613	A	40.8021156803
613	B	71.8328491032
614	A	55.2753170195
614	B	70.9291313096
615	A	48.4020464143
615	B	64.8011537136
616	A	53.709366447
616	B	80.9571555481
617	A	43.2148918432
617	B	66.9576584091
618	A	63.8302270102
618	B	53.8531032904
619	A	29.0734130578
619	B	60.0659606959
620	A	44.6242576914
620	B	70.6098209895
621	A	60.7687892369
621	B	63.5517057998
622	A	57.7287490876
622	B	68.2130835793
623	A	48.5972345613
623	B	53.0690891611
624	A	43.6204728033
624	B	60.808952
625	A	47.5696691383
625	B	83.3852958889
626	A	39.3360907017
626	B	33.0267789393
627	A	63.8792121872
627	B	64.7286771031
628	A	46.5041455228
628	B	72.3381755521
629	A	56.4125744729
629	B	78.6369264944
630	A	39.9536096517
630	B	56.4417782485
631	A	50.3898950325
631	B	63.9205970356
632	A	39.4673257468
632	B	43.0513850257
633	A	63.5653456957
633	B	61.8625565779
634	A	48.8546518786
634	B	48.5036968455
635	A	51.389899909
635	B	46.502289053
636	A	52.9344306907
636	B	61.6660445836
637	A	59.5999111616
637	B	65.612808001
638	A	48.5063976882
638	B	44.6606527364
639	A	55.83209684
639	B	52.4041029869
640	A	41.5931438629
640	B	72.7826644273
641	A	44.0184361846
641	B	69.4271503025
642	A	51.0822080905
642	B	63.0463617539
643	A	51.1692601013
643	B	38.2455340886
644	A	56.3143026228
644	B	37.2060116647
645	A	43.0452296499
645	B	86.1186871785
646	A	56.9947404461
646	B	66.5427220566
647	A	58.9620297805
647	B	70.1270574267
648	A	42.4402044564
648	B	62.3646457
649	A	53.4487534835
649	B	52.6090931941
650	A	44.3714956669
650	B	52.8729627812
651	A	37.3059775187
651	B	69.0264349008
652	A	56.3636765143
652	B	51.854615994
653	A	50.4196563594
653	B	48.2738479137
654	A	44.5115715763
654	B	65.1505129982
655	A	54.0705418826
655	B	63.668422334
656	A	45.8160422829
656	B	66.8264688984
657	A	41.0093080042
657	B	61.7440600302
658	A	47.7216333703
658	B	50.2322432263
659	A	42.2325077823
659	B	69.2085786269
660	A	57.2728236468
660	B	61.3594572509
661	A	48.8806591566
661	B	57.6763470004
662	A	28.5804226125
662	B	65.4017783967
663	A	54.2110614037
663	B	53.6061387353
664	A	45.6373433654
664	B	56.4899856527
665	A	43.5612269697
665	B	74.9901148887
666	A	64.0361794712
666	B	42.0493673463
667	A	44.2560331065
667	B	77.4137507236
668	A	45.2125382889
668	B	40.3119964887
669	A	39.985982737
669	B	66.434453652
670	A	49.8911000505
670	B	67.1262940177
671	A	60.6424529059
671	B	65.7912715585
672	A	60.786739459
672	B	62.1737134764
673	A	40.3317842303
673	B	55.4234997413
674	A	36.6414074141
674	B	57.5991577776
675	A	37.2797016129
675	B	61.2657386516
676	A	57.7427474198
676	B	71.5504757334
677	A	43.3470877745
677	B	59.1447963153
678	A	58.2162537763
678	B	37.186097435
679	A	46.6311718091
679	B	71.989252893
680	A	48.3206281939
680	B	48.4875057319
681	A	40.2203153153
681	B	53.3840846041
682	A	48.8159776582
682	B	85.9576380558
683	A	25.6674464299
683	B	57.5156676013
684	A	36.5595129127
684	B	52.6544742863
685	A	55.4473151612
685	B	62.9549880432
686	A	31.3740338187
686	B	59.8739725799
687	A	40.6116441099
687	B	64.0236961025
688	A	53.4947830451
688	B	65.5597760452
689	A	39.4827313405
689	B	59.3516526529
690	A	69.324642147
690	B	61.4482173002
691	A	38.4144061138
691	B	64.3101329149
692	A	54.885000645
692	B	43.6262263131
693	A	51.8272597207
693	B	92.8761690397
694	A	42.610113614
694	B	61.132040776
695	A	31.9753696621
695	B	36.637685731
696	A	48.7071436828
696	B	72.5011798191
697	A	69.2470231625
697	B	46.5674455513
698	A	50.5844960228
698	B	47.0830078833
699	A	46.0703344476
699	B	90.4945367977
700	A	42.7733665101
700	B	58.6633959242
701	A	51.7223407148
701	B	71.0972367873
702	A	52.5534112368
702	B	78.4701388612
703	A	54.2684334551
703	B	74.02762742
704	A	52.4419885742
704	B	63.6658814908
705	A	35.5572755891
705	B	64.0469760706
706	A	52.5850938076
706	B	75.094582718
707	A	59.4209985158
707	B	84.808580166
708	A	^46.01053565
708	B	77.7168576833
709	A	52.0860630516
709	B	71.0169998052
710	A	56.6776223135
710	B	93.5112051306
711	A	46.0916453817
711	B	80.9706650436
712	A	52.2923314096
712	B	77.2840117769
713	A	52.2333233184
713	B	60.9468237437
714	A	43.5510969641
714	B	76.6678900334
715	A	47.6250958865
715	B	75.6774284837
716	A	46.2269212991
716	B	53.2058943683
717	A	65.4812199714
717	B	56.4711276772
718	A	48.4950646668
718	B	34.7786082883
719	A	56.9868858643
719	B	59.9347019192
720	A	55.3398271592
720	B	82.5879338547
721	A	60.5245768925
721	B	43.5088454179
722	A	46.8275238881
722	B	96.8976220958
723	A	59.512690821
723	B	51.4054565119
724	A	40.9121976035
724	B	53.5636500218
725	A	55.8479136204
725	B	60.9692104294
726	A	63.8300593208
726	B	86.5595503644
727	A	37.8599388369
727	B	64.8354073366
728	A	61.9102001508
728	B	62.2999533112
729	A	53.4229647602
729	B	87.8097126659
730	A	44.1885635962
730	B	72.297391323
731	A	53.2243706623
731	B	72.7149104478
732	A	56.1248204659
732	B	55.7608587543
733	A	42.6364319165
733	B	71.3462616009
734	A	52.0089081684
734	B	39.5900871161
735	A	61.5867522776
735	B	45.6565949337
736	A	55.3931010578
736	B	64.3829451674
737	A	65.1616195175
737	B	77.4694827601
738	A	43.8097148728
738	B	75.0670105451
739	A	52.952804235
739	B	47.4862384223
740	A	53.9540897185
740	B	45.7192438647
741	A	49.1019133994
741	B	43.4005138463
742	A	56.450265466
742	B	55.5954687414
743	A	38.5163687213
743	B	74.346181748
744	A	51.3018714144
744	B	85.2431293001
745	A	51.4845090783
745	B	0
746	A	47.3960428733
746	B	64.2476071903
747	A	50.0858414296
747	B	60.9682929774
748	A	53.0420820893
748	B	60.4429079386
749	A	41.8101673768
749	B	67.7529126759
750	A	48.799973257
750	B	77.0251601129
751	A	49.0929243171
751	B	59.520047519
752	A	33.3160272321
752	B	73.2172249835
753	A	45.3050273616
753	B	58.0733751654
754	A	62.3212104322
754	B	96.8882647163
755	A	50.2122283183
755	B	35.4658573705
756	A	54.2702959714
756	B	77.9000948611
757	A	62.0794684903
757	B	53.2959142297
758	A	51.444344409
758	B	64.4550024284
759	A	60.9283751825
759	B	51.2618715153
760	A	40.7370288076
760	B	75.2716135447
761	A	54.7777112775
761	B	78.7271455478
762	A	65.2074851186
762	B	17.1089489554
763	A	73.1689894934
763	B	59.8872158266
764	A	78.5797598706
764	B	77.3793280887
765	A	53.4424399337
765	B	64.3652488295
766	A	48.2565909042
766	B	62.4881810469
767	A	67.8459676189
767	B	56.8132708861
768	A	69.8695825425
768	B	38.1355249577
769	A	54.25415815
769	B	79.0638077632
770	A	54.1539900932
770	B	54.4165000429
771	A	53.1422546263
771	B	41.1061413052
772	A	51.7254925421
772	B	88.0534047451
773	A	33.9223479938
773	B	58.7276426964
774	A	39.2282672077
774	B	58.1938762056
775	A	36.6609557658
775	B	52.0428861105
776	A	29.9978096555
776	B	62.3829686645
777	A	47.4770848369
777	B	76.484248881
778	A	39.714329372
778	B	44.4157308869
779	A	50.277046158
779	B	58.4519290382
780	A	55.9047585646
780	B	74.3616116424
781	A	34.2579046219
781	B	57.4618530652
782	A	51.8054512569
782	B	42.8112108769
783	A	39.6747647207
783	B	49.4564472665
784	A	63.4474092892
784	B	76.5832055394
785	A	42.5997264458
785	B	81.3368126192
786	A	40.3422836233
786	B	50.6399054212
787	A	39.4981144101
787	B	76.1090528893
788	A	58.2508780936
788	B	67.2208776733
789	A	60.3224651344
789	B	50.066319656
790	A	49.4429708002
790	B	69.546364728
791	A	50.6333790275
791	B	76.0552611569
792	A	79.9817673013
792	B	59.9836522338
793	A	43.8858300579
793	B	68.8367772837
794	A	46.6956707942
794	B	79.4173839991
795	A	46.9664653718
795	B	68.038953328
796	A	54.0848519564
796	B	68.9144004866
797	A	55.6342724155
797	B	71.610842297
798	A	34.1533022015
798	B	66.50123911
799	A	44.6771126571
799	B	72.029447721
800	A	43.5796533817
800	B	77.930969137
801	A	32.4207682731
801	B	50.6992424341
802	A	52.8071083995
802	B	49.6027985202
803	A	62.4744728825
803	B	59.4265399763
804	A	34.6694071348
804	B	80.2481564423
805	A	29.381772292
805	B	38.9347503042
806	A	47.3579277704
806	B	71.1763955634
807	A	46.8349203631
807	B	54.0117000988
808	A	57.918959522
808	B	96.6249435672
809	A	34.6131423816
809	B	60.3705903447
810	A	70.4080210486
810	B	77.1671000429
811	A	53.4521084829
811	B	38.1915371204
812	A	58.0229413703
812	B	39.2282792433
813	A	47.3897982964
813	B	92.6863327293
814	A	57.582741405
814	B	64.5559484758
815	A	38.162036662
815	B	58.8177228803
816	A	50.7928294619
816	B	48.1316792923
817	A	55.9402203764
817	B	74.241147761
818	A	60.2391519053
818	B	64.2515658281
819	A	36.4845629947
819	B	85.8631182702
820	A	37.6750126475
820	B	63.6384995082
821	A	52.4049116712
821	B	49.4808236031
822	A	62.8883217892
822	B	54.3296939656
823	A	51.1489053307
823	B	56.9232401647
824	A	47.4244675408
824	B	71.4970360043
825	A	67.7708517558
825	B	58.7512580062
826	A	55.6798249925
826	B	73.2179946044
827	A	61.0784558724
827	B	39.8235816144
828	A	58.1815884258
828	B	92.1559833406
829	A	49.3336618733
829	B	77.043583079
830	A	56.9989163863
830	B	46.3504388991
831	A	23.5998535427
831	B	41.4488209596
832	A	65.7509600871
832	B	57.0178742848
833	A	37.2783342284
833	B	84.6239794581
834	A	43.4446487912
834	B	61.6214704045
835	A	49.8220172159
835	B	78.1332788203
836	A	42.5501128597
836	B	77.605466025
837	A	51.4127321949
837	B	70.7894779335
838	A	55.7374878386
838	B	50.8372703037
839	A	59.6265990021
839	B	72.0321023354
840	A	51.944744927
840	B	54.5275792526
841	A	37.2385525474
841	B	42.9222650737
842	A	35.3061941127
842	B	62.0638727354
843	A	50.2877556275
843	B	37.0218523804
844	A	58.0464917388
844	B	78.9619930189
845	A	48.1009537019
845	B	58.1646989445
846	A	45.1690779088
846	B	49.5990730466
847	A	37.1275942519
847	B	51.228494177
848	A	57.1409008929
848	B	64.6658292968
849	A	38.6141677227
849	B	63.1482679258
850	A	45.3994588011
850	B	58.0181684922
851	A	40.4244627085
851	B	72.3991922009
852	A	42.4129982671
852	B	54.1380085522
853	A	51.1915575203
853	B	70.3986877199
854	A	31.8669737597
854	B	69.7686887824
855	A	63.9452358242
855	B	87.0629883547
856	A	45.9233970293
856	B	71.7589314163
857	A	36.1199450431
857	B	70.3906637667
858	A	37.806574761
858	B	67.5703932131
859	A	45.187998559
859	B	77.2876733492
860	A	38.9767827013
860	B	68.6445217481
861	A	51.8937516845
861	B	74.5960580782
862	A	39.8299208476
862	B	61.9718674188
863	A	34.6307839337
863	B	85.6898353381
864	A	59.1986884625
864	B	51.0622197259
865	A	47.6580506643
865	B	92.7153084656
866	A	40.0388854401
866	B	75.2794215113
867	A	31.9787189973
867	B	83.8812095417
868	A	45.5083061514
868	B	85.4508448995
869	A	59.2881202323
869	B	55.4240072807
870	A	45.6692929382
870	B	59.2097433744
871	A	66.4066619615
871	B	62.6902195877
872	A	47.0112361757
872	B	69.3132674444
873	A	57.3047909451
873	B	63.8353184389
874	A	57.5250004807
874	B	57.7099324658
875	A	38.6538741535
875	B	83.5917006841
876	A	54.8493123999
876	B	54.6212598439
877	A	58.2721777418
877	B	54.0575555475
878	A	63.1179339298
878	B	92.1240763876
879	A	58.9584504939
879	B	80.9009244121
880	A	48.399426238
880	B	76.1301228741
881	A	49.6766825811
881	B	49.6052575856
882	A	40.7917437556
882	B	55.5994450783
883	A	42.5106515859
883	B	63.2240253614
884	A	60.0751620795
884	B	80.7925647845
885	A	67.8055588644
885	B	64.6743956863
886	A	19.2380372811
886	B	63.4783904908
887	A	64.2250821592
887	B	44.3953719888
888	A	77.780612528
888	B	60.8411365974
889	A	55.455947596
889	B	50.1538868176
890	A	46.6863969488
890	B	47.436563037
891	A	51.6792604454
891	B	87.2691744378
892	A	55.8533993853
892	B	73.6832040062
893	A	43.4019043382
893	B	36.4267558782
894	A	49.0659147367
894	B	62.2764302464
895	A	57.0207348363
895	B	68.6505281655
896	A	56.3990737296
896	B	74.7698905296
897	A	42.150378468
897	B	80.5507757493
898	A	47.2457560888
898	B	78.3778838447
899	A	59.4803640941
899	B	56.2673174212
900	A	53.6101597913
900	B	65.3278496284
901	A	32.9862692906
901	B	58.4818848995
902	A	52.3877598353
902	B	50.9408193258
903	A	43.4184458209
903	B	59.8447372051
904	A	43.1676324439
904	B	69.8720346805
905	A	47.8981391799
905	B	74.8651260544
906	A	53.9508673386
906	B	27.343334784
907	A	38.4486476844
907	B	65.7986009419
908	A	66.7327270247
908	B	58.7424967149
909	A	44.2642008127
909	B	87.072097675
910	A	51.1100131785
910	B	60.732235151
911	A	48.3181300985
911	B	54.5978952566
912	A	56.5070733701
912	B	85.6437368886
913	A	58.9599769817
913	B	41.8443444561
914	A	55.6568197549
914	B	52.5142925281
915	A	48.8325835698
915	B	61.7283934741
916	A	26.0780594625
916	B	91.3111013092
917	A	29.8481691919
917	B	66.0905883051
918	A	57.0668875943
918	B	43.4994763061
919	A	49.2966599167
919	B	81.2912057315
920	A	47.6171544136
920	B	48.0452279822
921	A	42.4744498916
921	B	68.6479877753
922	A	53.1101377385
922	B	68.706688515
923	A	40.3068564882
923	B	50.2357496769
924	A	48.2088831601
924	B	67.7489420061
925	A	50.4442439369
925	B	52.138625157
926	A	40.9938725968
926	B	49.8866281351
927	A	69.5731746486
927	B	84.0100333074
928	A	34.9617341527
928	B	63.5325412743
929	A	46.9632492299
929	B	66.9650040597
930	A	65.9560599831
930	B	65.7285875085
931	A	69.8945451458
931	B	35.855710412
932	A	42.5168752568
932	B	37.782199156
933	A	58.8242509735
933	B	64.0941479166
934	A	37.9088464291
934	B	66.1121417475
935	A	62.8199853212
935	B	64.2440894998
936	A	49.6568384959
936	B	54.5613660467
937	A	44.5375310684
937	B	89.850279966
938	A	34.1388472978
938	B	67.9257980418
939	A	53.3597370464
939	B	60.5211945064
940	A	35.5496973458
940	B	50.0100161242
941	A	56.10933647
941	B	39.4691301895
942	A	62.7642596996
942	B	82.6727269342
943	A	56.2814673121
943	B	67.1586707954
944	A	47.737404969
944	B	79.7805136359
945	A	65.8895498534
945	B	53.7954407354
946	A	45.810749363
946	B	80.546563577
947	V	60.5151436061
947	B	78.280557967
948	A	51.7071050465
948	B	57.9646712083
949	A	48.8608956116
949	B	87.2445579398
950	A	60.1875868665
950	B	73.9538255021
951	A	52.8294484721
951	B	75.4566363772
952	A	64.1256849931
952	B	71.7847002477
953	A	56.1336055
953	B	74.9478767524
954	A	41.4744831152
954	B	91.8079552759
955	A	51.9539157207
955	B	60.9006539535
956	A	45.9280580192
956	B	66.6498965706
957	A	41.7381371189
957	B	82.0127365389
958	A	45.0837298246
958	B	60.5898193702
959	A	42.0136410174
959	B	61.728838466
960	A	46.8658454393
960	B	70.1537319645
961	A	37.777390082
961	B	60.3201034259
962	A	49.8116984788
962	B	86.3999757673
963	A	62.9027307281
963	B	75.0641715698
964	A	52.042536348
964	B	85.8270937776
965	A	55.2829778637
965	B	70.5348904096
966	A	52.5876928012
966	B	67.6981372349
967	A	54.0837901466
967	B	53.7389827288
968	A	50.3222807857
968	B	58.7953168986
969	A	48.5103368935
969	B	60.3627689886
970	A	51.9953228655
970	B	71.4879915978
971	A	47.0065031722
971	B	41.083243633
972	A	34.1487165637
972	B	88.3662198391
973	A	62.4227312756
973	B	42.4219504211
974	A	36.8066766697
974	B	51.9616013564
975	A	52.6484838411
975	B	89.3875424793
976	A	43.8093155054
976	B	62.1799107832
977	A	49.0546965703
977	B	77.8085699749
978	A	66.0861094576
978	B	81.1830530928
979	A	45.5284805263
979	B	63.3759971714
980	A	53.3138119516
980	B	54.3219725583
981	A	63.1693899655
981	B	64.161248958
982	A	61.0386977908
982	B	36.4444736052
983	A	53.2237820991
983	B	36.841043032
984	A	52.7167614252
984	B	64.5641583066
985	A	50.464240289
985	B	48.8298545262
986	A	60.1756925783
986	B	55.5653137865
987	A	48.3724520034
987	B	70.6675961802
988	A	54.2221000824
988	B	58.9382758176
989	A	57.4696963242
989	B	51.5654994276
990	A	45.9251124164
990	B	94.989225329
991	A	44.0734842599
991	B	65.2031172063
992	A	44.5621918713
992	B	87.8224087774
993	A	62.8461573798
993	B	48.1553158182
994	A	59.234340235
994	B	47.6715263451
995	A	48.8661226915
995	B	56.7475236193
996	A	51.5814088167
996	B	85.0197964495
997	A	37.306712196
997	B	88.0229130715
998	A	56.9666951313
998	B	31.4927955236
999	A	30.6391809714
999	B	71.2910549743
1000	A	34.4331988105
1000	B	62.6629058358
